{
  "project_info": {
    "project_number": "339870672728",
    "firebase_url": "https://presystem-7c739.firebaseio.com",
    "project_id": "presystem-7c739",
    "storage_bucket": "presystem-7c739.appspot.com"
  },
  "client": [
    {
      "client_info": {
        "mobilesdk_app_id": "1:339870672728:android:055d003eac01eb45",
        "android_client_info": {
          "package_name": "com.example.musabirmusabayli.ismile_presystem"
        }
      },
      "oauth_client": [
        {
          "client_id": "339870672728-95pdjh2v9t4sloqoomrm86f291l1a9qj.apps.googleusercontent.com",
          "client_type": 3
        }
      ],
      "api_key": [
        {
          "current_key": "AIzaSyCZFe5Yz577yUCtMwBG6EO2cl1BJbB_4YE"
        }
      ],
      "services": {
        "analytics_service": {
          "status": 1
        },
        "appinvite_service": {
          "status": 1,
          "other_platform_oauth_client": []
        },
        "ads_service": {
          "status": 2
        }
      }
    },
    {
      "client_info": {
        "mobilesdk_app_id": "1:339870672728:android:737cd59042057693",
        "android_client_info": {
          "package_name": "com.example.musabirmusabayli.presystem"
        }
      },
      "oauth_client": [
        {
          "client_id": "339870672728-jolofbphhf8hdbpsb8pr0qe0tgtmh5ci.apps.googleusercontent.com",
          "client_type": 1,
          "android_info": {
            "package_name": "com.example.musabirmusabayli.presystem",
            "certificate_hash": "d6753dce63006d03ce44ada9d03a3133b0877ddb"
          }
        },
        {
          "client_id": "339870672728-95pdjh2v9t4sloqoomrm86f291l1a9qj.apps.googleusercontent.com",
          "client_type": 3
        }
      ],
      "api_key": [
        {
          "current_key": "AIzaSyCZFe5Yz577yUCtMwBG6EO2cl1BJbB_4YE"
        }
      ],
      "services": {
        "analytics_service": {
          "status": 1
        },
        "appinvite_service": {
          "status": 2,
          "other_platform_oauth_client": [
            {
              "client_id": "339870672728-95pdjh2v9t4sloqoomrm86f291l1a9qj.apps.googleusercontent.com",
              "client_type": 3
            }
          ]
        },
        "ads_service": {
          "status": 2
        }
      }
    }
  ],
  "configuration_version": "1"
}